Lab Eleven – Point Estimation and Resampling – n
…
  return(res.long)
}

res<- estimator.comparison(20)
(res)

# A tibble: 8,000 × 3
   Estimator Distribution  vals
   <chr>     <chr>        <dbl>
 1 s         binom         2.85
 2 sn        binom         3.00
 3 s         expo          3.61
 4 sn        expo          3.80
 5 s         norm          2.00
 6 sn        norm          2.10
 7 s         pois          3.06
 8 sn        pois          3.22
 9 s         binom         1.19
10 sn        binom         1.25
# ℹ 7,990 more rows
…
