Lab Ten – Point Estimation – n
…
Code

# pivot long
gg.long<- gg.dat |> 
    pivot_longer(
    cols=starts_with("PMF"),
    names_to="theta",
    values_to="PMF"
  )
(gg.long)

# A tibble: 36 × 3
       x theta           PMF
   <int> <chr>         <dbl>
 1     0 PMF05 0.495        
 2     0 PMF1  0.000488     
 3     0 PMF15 0.00000000418
 4     1 PMF05 0.00531      
 5     1 PMF1  0.00537      
 6     1 PMF15 0.00000265   
 7     2 PMF05 0.000104     
 8     2 PMF1  0.0269       
 9     2 PMF15 0.000340     
10     3 PMF05 0.00000486   
# ℹ 26 more rows
…
